\relax 
\providecommand\hyper@newdestlabel[2]{}
\providecommand\HyperFirstAtBeginDocument{\AtBeginDocument}
\HyperFirstAtBeginDocument{\ifx\hyper@anchor\@undefined
\global\let\oldcontentsline\contentsline
\gdef\contentsline#1#2#3#4{\oldcontentsline{#1}{#2}{#3}}
\global\let\oldnewlabel\newlabel
\gdef\newlabel#1#2{\newlabelxx{#1}#2}
\gdef\newlabelxx#1#2#3#4#5#6{\oldnewlabel{#1}{{#2}{#3}}}
\AtEndDocument{\ifx\hyper@anchor\@undefined
\let\contentsline\oldcontentsline
\let\newlabel\oldnewlabel
\fi}
\fi}
\global\let\hyper@last\relax 
\gdef\HyperFirstAtBeginDocument#1{#1}
\providecommand\HyField@AuxAddToFields[1]{}
\providecommand\HyField@AuxAddToCoFields[2]{}
\@writefile{toc}{\contentsline {section}{\numberline {1}Overview}{2}{section.1}}
\@writefile{toc}{\contentsline {section}{\numberline {2}Runtime}{2}{section.2}}
\@writefile{toc}{\contentsline {subsection}{\numberline {2.1}Testing}{2}{subsection.2.1}}
\@writefile{toc}{\contentsline {section}{\numberline {3}Design}{2}{section.3}}
\@writefile{toc}{\contentsline {subsection}{\numberline {3.1}Architecture}{2}{subsection.3.1}}
\@writefile{toc}{\contentsline {subsection}{\numberline {3.2}Topology}{3}{subsection.3.2}}
\@writefile{toc}{\contentsline {subsection}{\numberline {3.3}Training}{4}{subsection.3.3}}
\@writefile{toc}{\contentsline {section}{\numberline {4}Results}{4}{section.4}}
\@writefile{toc}{\contentsline {section}{\numberline {5}Conclusion}{5}{section.5}}
\newlabel{LastPage}{{}{5}{}{page.5}{}}
\xdef\lastpage@lastpage{5}
\xdef\lastpage@lastpageHy{5}
\gdef\minted@oldcachelist{,
  default-pyg-prefix.pygstyle,
  default.pygstyle,
  ACC28E62CB07735B26160C1D91D5EF2EEAD440A79C3E84ACDCEF803F7E227B29.pygtex,
  FDDF2B66D415530091E6B7951FB3C317EAD440A79C3E84ACDCEF803F7E227B29.pygtex,
  FBECA870B35F2F52481886F4C698E3D4EAD440A79C3E84ACDCEF803F7E227B29.pygtex,
  46AF914CE2D6A79D6078D623A9F7BB1BEAD440A79C3E84ACDCEF803F7E227B29.pygtex,
  36153C4DD4E476E4DAA9A8D5DB71CF3AEAD440A79C3E84ACDCEF803F7E227B29.pygtex,
  EA633E910F4143F63E77603C97973F7BEAD440A79C3E84ACDCEF803F7E227B29.pygtex,
  194D0EA8F16AD595EFF3D970436794CFEAD440A79C3E84ACDCEF803F7E227B29.pygtex,
  CEA85539A851049474F05282370073DCEAD440A79C3E84ACDCEF803F7E227B29.pygtex,
  4FC4A75B835CCA9919852D52EAE0486BA342C568CC9B2B0F21B028685DC2A110.pygtex,
  1296B0F2A3E0A6E17637073EFEC7BADFEB73B7057579772E13986F4DBA609366.pygtex,
  675DB6D3183791E1247917E2C2117DB4BA0CE77D6AEDBE2E9678EBADA1A54F30.pygtex}
